sumSE,num_shots,phase,recording_qubits,rounds,width,depth
0.0007774141733889129,100,0.3333333333333333,2,30,3,16
2.203941459459823e-07,1000,0.3333333333333333,2,30,3,16
6.246393395922551e-06,10000,0.3333333333333333,2,30,3,16
8.8736016271907e-06,100000,0.3333333333333333,2,30,3,16
2.5912291306304724e-07,1000000,0.3333333333333333,2,30,3,16
4.288218126857862e-08,10000000,0.3333333333333333,2,30,3,16
0.2561401110816344,100,0.2,2,30,3,16
0.00021761415920812705,1000,0.2,2,30,3,16
1.459452796530118e-07,10000,0.2,2,30,3,16
1.4240280199955224e-06,100000,0.2,2,30,3,16
5.394567907068629e-09,1000000,0.2,2,30,3,16
2.0657853156067592e-08,10000000,0.2,2,30,3,16
0.0005229801189720125,100,0.14285714285714285,2,30,3,16
0.00031044704753706835,1000,0.14285714285714285,2,30,3,16
7.984390476233343e-06,10000,0.14285714285714285,2,30,3,16
2.231742459764198e-06,100000,0.14285714285714285,2,30,3,16
1.2296997538341125e-07,1000000,0.14285714285714285,2,30,3,16
1.5583810756813845e-13,10000000,0.14285714285714285,2,30,3,16
6.055383315787484e-05,100,0.1111111111111111,2,30,3,16
6.658782506970808e-05,1000,0.1111111111111111,2,30,3,16
8.614526009262928e-06,10000,0.1111111111111111,2,30,3,16
3.2762384958818005e-07,100000,0.1111111111111111,2,30,3,16
1.9365732797079629e-07,1000000,0.1111111111111111,2,30,3,16
7.408199765229061e-09,10000000,0.1111111111111111,2,30,3,16
0.0001902667618786094,100,0.3333333333333333,3,30,4,27
0.00021215069170556965,1000,0.3333333333333333,3,30,4,27
5.2705202623258915e-06,10000,0.3333333333333333,3,30,4,27
1.2591640694054561e-07,100000,0.3333333333333333,3,30,4,27
1.1386768957222442e-07,1000000,0.3333333333333333,3,30,4,27
2.464583015885337e-09,10000000,0.3333333333333333,3,30,4,27
0.0006434992173569642,100,0.2,3,30,4,27
2.488140505480383e-05,1000,0.2,3,30,4,27
1.1178149188197484e-07,10000,0.2,3,30,4,27
2.3141995792728667e-07,100000,0.2,3,30,4,27
3.21216981416116e-11,1000000,0.2,3,30,4,27
4.5988245025719355e-11,10000000,0.2,3,30,4,27
4.605095858717131e-05,100,0.14285714285714285,3,30,4,27
6.300102054811754e-05,1000,0.14285714285714285,3,30,4,27
4.4203402973207847e-08,10000,0.14285714285714285,3,30,4,27
6.753349386240849e-08,100000,0.14285714285714285,3,30,4,27
3.083172032813158e-10,1000000,0.14285714285714285,3,30,4,27
1.0776776053001216e-08,10000000,0.14285714285714285,3,30,4,27
3.8742846621335154e-05,100,0.1111111111111111,3,30,4,27
6.602023403550767e-06,1000,0.1111111111111111,3,30,4,27
1.5252639412964797e-06,10000,0.1111111111111111,3,30,4,27
3.397387098638849e-07,100000,0.1111111111111111,3,30,4,27
3.215824850457655e-10,1000000,0.1111111111111111,3,30,4,27
1.0390014858788364e-08,10000000,0.1111111111111111,3,30,4,27
9.197763366509112e-05,100,0.3333333333333333,4,30,5,38
8.101043855262872e-06,1000,0.3333333333333333,4,30,5,38
8.509830496754535e-07,10000,0.3333333333333333,4,30,5,38
3.919154686563824e-09,100000,0.3333333333333333,4,30,5,38
6.848903205961622e-10,1000000,0.3333333333333333,4,30,5,38
1.0224692007191012e-09,10000000,0.3333333333333333,4,30,5,38
8.981422335827921e-08,100,0.2,4,30,5,38
1.9215793046840377e-05,1000,0.2,4,30,5,38
7.725211442139747e-08,10000,0.2,4,30,5,38
1.4533760640849302e-09,100000,0.2,4,30,5,38
2.557281829391408e-09,1000000,0.2,4,30,5,38
1.0114111394519415e-10,10000000,0.2,4,30,5,38
4.253325853891798e-05,100,0.14285714285714285,4,30,5,38
9.358066019819169e-07,1000,0.14285714285714285,4,30,5,38
1.4445790770657197e-06,10000,0.14285714285714285,4,30,5,38
8.357362181716927e-09,100000,0.14285714285714285,4,30,5,38
7.923392221176155e-10,1000000,0.14285714285714285,4,30,5,38
4.554501952755077e-10,10000000,0.14285714285714285,4,30,5,38
1.4431052313546955e-06,100,0.1111111111111111,4,30,5,38
3.8544938963529925e-06,1000,0.1111111111111111,4,30,5,38
4.42051224193928e-06,10000,0.1111111111111111,4,30,5,38
4.030400149827224e-08,100000,0.1111111111111111,4,30,5,38
3.204923134101546e-08,1000000,0.1111111111111111,4,30,5,38
4.311775531632247e-10,10000000,0.1111111111111111,4,30,5,38
0.00010913624986256417,100,0.3333333333333333,5,30,6,49
3.1945781222092523e-07,1000,0.3333333333333333,5,30,6,49
2.7201758578932858e-08,10000,0.3333333333333333,5,30,6,49
1.8628140902550545e-08,100000,0.3333333333333333,5,30,6,49
2.5744968112456395e-09,1000000,0.3333333333333333,5,30,6,49
2.47747529161059e-11,10000000,0.3333333333333333,5,30,6,49
3.534339525482833e-05,100,0.2,5,30,6,49
8.841066782773696e-07,1000,0.2,5,30,6,49
1.3145939643383183e-06,10000,0.2,5,30,6,49
4.9574526868794105e-09,100000,0.2,5,30,6,49
6.673727586835154e-10,1000000,0.2,5,30,6,49
7.158464698351187e-11,10000000,0.2,5,30,6,49
4.623681015767423e-08,100,0.14285714285714285,5,30,6,49
9.275097585610427e-11,1000,0.14285714285714285,5,30,6,49
3.0060994917974107e-09,10000,0.14285714285714285,5,30,6,49
2.7913058668308097e-08,100000,0.14285714285714285,5,30,6,49
9.957727632919304e-12,1000000,0.14285714285714285,5,30,6,49
3.3876959396656497e-11,10000000,0.14285714285714285,5,30,6,49
1.1113903158556911e-05,100,0.1111111111111111,5,30,6,49
2.0002833168308359e-07,1000,0.1111111111111111,5,30,6,49
2.257515433042203e-07,10000,0.1111111111111111,5,30,6,49
1.2159635734161664e-09,100000,0.1111111111111111,5,30,6,49
1.5163709958201254e-10,1000000,0.1111111111111111,5,30,6,49
3.031765594648399e-10,10000000,0.1111111111111111,5,30,6,49
1.3456506633924769e-08,100,0.3333333333333333,6,30,7,60
1.3060013471050981e-06,1000,0.3333333333333333,6,30,7,60
3.4174569206333e-07,10000,0.3333333333333333,6,30,7,60
1.1232719026421955e-08,100000,0.3333333333333333,6,30,7,60
6.218421957253885e-11,1000000,0.3333333333333333,6,30,7,60
9.511578611839597e-12,10000000,0.3333333333333333,6,30,7,60
3.353189099548156e-08,100,0.2,6,30,7,60
2.346950107280626e-06,1000,0.2,6,30,7,60
3.0411808900701917e-09,10000,0.2,6,30,7,60
2.8210365072171845e-09,100000,0.2,6,30,7,60
4.1557381941075727e-10,1000000,0.2,6,30,7,60
1.6940726748934005e-12,10000000,0.2,6,30,7,60
2.375333948258195e-06,100,0.14285714285714285,6,30,7,60
3.0198979087943125e-06,1000,0.14285714285714285,6,30,7,60
2.0715035133587924e-09,10000,0.14285714285714285,6,30,7,60
7.160351761012035e-09,100000,0.14285714285714285,6,30,7,60
3.321093743171429e-10,1000000,0.14285714285714285,6,30,7,60
2.1444088385934137e-11,10000000,0.14285714285714285,6,30,7,60
0.0004649261525203044,100,0.1111111111111111,6,30,7,60
0.00034583472778427674,1000,0.1111111111111111,6,30,7,60
1.2276616673218835e-09,10000,0.1111111111111111,6,30,7,60
2.5596552245974207e-09,100000,0.1111111111111111,6,30,7,60
1.619807433026185e-10,1000000,0.1111111111111111,6,30,7,60
4.827974212794725e-11,10000000,0.1111111111111111,6,30,7,60
5.896880054379286e-06,100,0.3333333333333333,7,30,8,71
1.8754624886020273e-09,1000,0.3333333333333333,7,30,8,71
3.4118395731810955e-08,10000,0.3333333333333333,7,30,8,71
1.038997045008575e-09,100000,0.3333333333333333,7,30,8,71
2.4375994930415252e-11,1000000,0.3333333333333333,7,30,8,71
2.229222852536757e-11,10000000,0.3333333333333333,7,30,8,71
2.0286450752482473e-08,100,0.2,7,30,8,71
1.2268038001148223e-07,1000,0.2,7,30,8,71
5.24761072109572e-08,10000,0.2,7,30,8,71
9.090693878678654e-10,100000,0.2,7,30,8,71
1.7143606975960587e-11,1000000,0.2,7,30,8,71
2.5458449296612445e-11,10000000,0.2,7,30,8,71
1.3533293831918497e-08,100,0.14285714285714285,7,30,8,71
4.846597446461962e-07,1000,0.14285714285714285,7,30,8,71
9.535003662092815e-10,10000,0.14285714285714285,7,30,8,71
4.3581373418302125e-11,100000,0.14285714285714285,7,30,8,71
1.7327609991096038e-10,1000000,0.14285714285714285,7,30,8,71
1.1074316237009288e-12,10000000,0.14285714285714285,7,30,8,71
1.503967481389368e-06,100,0.1111111111111111,7,30,8,71
9.538812953623486e-10,1000,0.1111111111111111,7,30,8,71
1.5370099958884303e-08,10000,0.1111111111111111,7,30,8,71
5.343693768151647e-10,100000,0.1111111111111111,7,30,8,71
8.58627739805402e-12,1000000,0.1111111111111111,7,30,8,71
1.7980570835014137e-11,10000000,0.1111111111111111,7,30,8,71
9.631124711724607e-07,100,0.3333333333333333,8,30,9,82
5.484170875609448e-09,1000,0.3333333333333333,8,30,9,82
7.840238251639614e-10,10000,0.3333333333333333,8,30,9,82
7.15377909737741e-12,100000,0.3333333333333333,8,30,9,82
4.688917019354614e-12,1000000,0.3333333333333333,8,30,9,82
5.397379091083055e-12,10000000,0.3333333333333333,8,30,9,82
7.223200184848058e-07,100,0.2,8,30,9,82
4.1371708436209065e-08,1000,0.2,8,30,9,82
4.268830510921432e-09,10000,0.2,8,30,9,82
7.419078849736505e-11,100000,0.2,8,30,9,82
1.3324350808685994e-10,1000000,0.2,8,30,9,82
3.745240261626873e-12,10000000,0.2,8,30,9,82
4.639458715474826e-07,100,0.14285714285714285,8,30,9,82
6.497045985938863e-08,1000,0.14285714285714285,8,30,9,82
2.078793620919393e-08,10000,0.14285714285714285,8,30,9,82
1.6297269409673426e-09,100000,0.14285714285714285,8,30,9,82
3.286606827736999e-13,1000000,0.14285714285714285,8,30,9,82
2.2210804786371452e-13,10000000,0.14285714285714285,8,30,9,82
9.361504822756612e-07,100,0.1111111111111111,8,30,9,82
5.05734055525915e-10,1000,0.1111111111111111,8,30,9,82
6.318877503331364e-10,10000,0.1111111111111111,8,30,9,82
2.3127077953807756e-10,100000,0.1111111111111111,8,30,9,82
1.2964281915138143e-11,1000000,0.1111111111111111,8,30,9,82
6.442906990469217e-14,10000000,0.1111111111111111,8,30,9,82
1.284695001450125e-09,100,0.3333333333333333,9,30,10,93
4.801565306671978e-09,1000,0.3333333333333333,9,30,10,93
2.828819510547248e-10,10000,0.3333333333333333,9,30,10,93
1.1532483597892603e-10,100000,0.3333333333333333,9,30,10,93
6.731148899604871e-12,1000000,0.3333333333333333,9,30,10,93
4.024979129986506e-13,10000000,0.3333333333333333,9,30,10,93
1.8005213438050376e-07,100,0.2,9,30,10,93
1.435109360406922e-09,1000,0.2,9,30,10,93
7.329987529207326e-10,10000,0.2,9,30,10,93
3.90880817219822e-11,100000,0.2,9,30,10,93
1.029509131278173e-12,1000000,0.2,9,30,10,93
3.942844233041947e-12,10000000,0.2,9,30,10,93
2.2352107716545486e-07,100,0.14285714285714285,9,30,10,93
1.1509196516632634e-09,1000,0.14285714285714285,9,30,10,93
1.662181908849709e-09,10000,0.14285714285714285,9,30,10,93
9.33658775345139e-12,100000,0.14285714285714285,9,30,10,93
9.956280442794794e-13,1000000,0.14285714285714285,9,30,10,93
1.5802571232980654e-13,10000000,0.14285714285714285,9,30,10,93
1.0608039417112103e-07,100,0.1111111111111111,9,30,10,93
5.263697888366793e-09,1000,0.1111111111111111,9,30,10,93
1.3631923170552659e-09,10000,0.1111111111111111,9,30,10,93
3.538713661168577e-10,100000,0.1111111111111111,9,30,10,93
5.2019421822886964e-11,1000000,0.1111111111111111,9,30,10,93
1.5230404834306243e-14,10000000,0.1111111111111111,9,30,10,93
1.039361480218746e-08,100,0.3333333333333333,10,30,11,104
3.88190116760643e-09,1000,0.3333333333333333,10,30,11,104
2.6394169906795313e-11,10000,0.3333333333333333,10,30,11,104
6.116935637548068e-11,100000,0.3333333333333333,10,30,11,104
1.1000934725809531e-14,1000000,0.3333333333333333,10,30,11,104
5.5161346636633176e-17,10000000,0.3333333333333333,10,30,11,104
6.2562687044231e-08,100,0.2,10,30,11,104
6.583747820460027e-10,1000,0.2,10,30,11,104
4.667671218838468e-10,10000,0.2,10,30,11,104
6.25649303258792e-12,100000,0.2,10,30,11,104
5.706214044045493e-13,1000000,0.2,10,30,11,104
4.730606454373587e-14,10000000,0.2,10,30,11,104
1.6393748774846247e-09,100,0.14285714285714285,10,30,11,104
7.856911342912258e-09,1000,0.14285714285714285,10,30,11,104
6.013227749174796e-11,10000,0.14285714285714285,10,30,11,104
3.961932701970029e-12,100000,0.14285714285714285,10,30,11,104
3.7505109804721194e-13,1000000,0.14285714285714285,10,30,11,104
6.606346161968698e-13,10000000,0.14285714285714285,10,30,11,104
4.238161462986928e-10,100,0.1111111111111111,10,30,11,104
7.277309001425433e-09,1000,0.1111111111111111,10,30,11,104
9.5186912688303e-10,10000,0.1111111111111111,10,30,11,104
2.017101771071596e-12,100000,0.1111111111111111,10,30,11,104
3.967932766616254e-12,1000000,0.1111111111111111,10,30,11,104
3.1162938978406344e-14,10000000,0.1111111111111111,10,30,11,104
