sumSE,num_shots,phase,recording_qubits,rounds,width,depth
0.24022412809684882,10,0.3333333333333333,2,50,3,16
0.15358246492588543,20,0.3333333333333333,2,50,3,16
0.13124392754803102,30,0.3333333333333333,2,50,3,16
0.074697795027019,40,0.3333333333333333,2,50,3,16
0.028435217376637928,50,0.3333333333333333,2,50,3,16
0.02792415136149386,60,0.3333333333333333,2,50,3,16
0.04769549003162185,70,0.3333333333333333,2,50,3,16
0.047731325815590905,80,0.3333333333333333,2,50,3,16
0.002676455975489051,90,0.3333333333333333,2,50,3,16
0.002073452793183121,100,0.3333333333333333,2,50,3,16
0.0002533728711183372,1000,0.3333333333333333,2,50,3,16
2.1647521534685624e-05,10000,0.3333333333333333,2,50,3,16
2.813967188290567e-06,100000,0.3333333333333333,2,50,3,16
2.541704472889333e-07,1000000,0.3333333333333333,2,50,3,16
2.0963302665563703e-08,10000000,0.3333333333333333,2,50,3,16
0.416584654085564,10,0.3333333333333333,2,100,3,16
0.29631686308532096,20,0.3333333333333333,2,100,3,16
0.17626815182453523,30,0.3333333333333333,2,100,3,16
0.17863408143098866,40,0.3333333333333333,2,100,3,16
0.07643758357107405,50,0.3333333333333333,2,100,3,16
0.07478839465059534,60,0.3333333333333333,2,100,3,16
0.09566412191614113,70,0.3333333333333333,2,100,3,16
0.07232750049316544,80,0.3333333333333333,2,100,3,16
0.05074551643126218,90,0.3333333333333333,2,100,3,16
0.024614344901366412,100,0.3333333333333333,2,100,3,16
0.00044474326334101533,1000,0.3333333333333333,2,100,3,16
4.439083506722437e-05,10000,0.3333333333333333,2,100,3,16
4.651181413758794e-06,100000,0.3333333333333333,2,100,3,16
4.5325078103518065e-07,1000000,0.3333333333333333,2,100,3,16
4.39843310638976e-08,10000000,0.3333333333333333,2,100,3,16
0.6454548375548758,10,0.2,2,100,3,16
0.4522210322563736,20,0.2,2,100,3,16
0.43183559268952476,30,0.2,2,100,3,16
0.39221741619973227,40,0.2,2,100,3,16
0.36124528215809926,50,0.2,2,100,3,16
0.3202108119109148,60,0.2,2,100,3,16
0.25086836143025654,70,0.2,2,100,3,16
0.2591845465447814,80,0.2,2,100,3,16
0.2461677201755954,90,0.2,2,100,3,16
0.21312406647200532,100,0.2,2,100,3,16
0.0005442284106028721,1000,0.2,2,100,3,16
5.055149006348292e-05,10000,0.2,2,100,3,16
4.446411131348367e-06,100000,0.2,2,100,3,16
4.2974183266947505e-07,1000000,0.2,2,100,3,16
4.387217456205772e-08,10000000,0.2,2,100,3,16
0.4517968209402849,10,0.14285714285714285,2,100,3,16
0.12437065251967795,20,0.14285714285714285,2,100,3,16
0.12618167705723352,30,0.14285714285714285,2,100,3,16
0.046676311709191246,40,0.14285714285714285,2,100,3,16
0.009272634761423072,50,0.14285714285714285,2,100,3,16
0.007083576636129793,60,0.14285714285714285,2,100,3,16
0.007413512163897393,70,0.14285714285714285,2,100,3,16
0.006181595984432238,80,0.14285714285714285,2,100,3,16
0.005332724632677096,90,0.14285714285714285,2,100,3,16
0.0043221549408213105,100,0.14285714285714285,2,100,3,16
0.0004887672965189541,1000,0.14285714285714285,2,100,3,16
4.6973169578606066e-05,10000,0.14285714285714285,2,100,3,16
4.903684730596037e-06,100000,0.14285714285714285,2,100,3,16
5.344897174286499e-07,1000000,0.14285714285714285,2,100,3,16
4.853165635158182e-08,10000000,0.14285714285714285,2,100,3,16
0.3432235355239892,10,0.1111111111111111,2,100,3,16
0.06549378563239654,20,0.1111111111111111,2,100,3,16
0.054343874680677105,30,0.1111111111111111,2,100,3,16
0.046402491960624015,40,0.1111111111111111,2,100,3,16
0.0402734156764816,50,0.1111111111111111,2,100,3,16
0.0068942501630558,60,0.1111111111111111,2,100,3,16
0.005841638048575676,70,0.1111111111111111,2,100,3,16
0.004933404435207536,80,0.1111111111111111,2,100,3,16
0.004297986374720839,90,0.1111111111111111,2,100,3,16
0.004051347329775343,100,0.1111111111111111,2,100,3,16
0.00043301055531156713,1000,0.1111111111111111,2,100,3,16
4.955345076104388e-05,10000,0.1111111111111111,2,100,3,16
4.145868854063639e-06,100000,0.1111111111111111,2,100,3,16
4.853765165250223e-07,1000000,0.1111111111111111,2,100,3,16
4.1493145407160065e-08,10000000,0.1111111111111111,2,100,3,16
0.14973120332547743,10,0.3333333333333333,3,100,4,27
0.09028389625373434,20,0.3333333333333333,3,100,4,27
0.04353191972565464,30,0.3333333333333333,3,100,4,27
0.033591851980106724,40,0.3333333333333333,3,100,4,27
0.025548484838381354,50,0.3333333333333333,3,100,4,27
0.014561624647095706,60,0.3333333333333333,3,100,4,27
0.01416355034543771,70,0.3333333333333333,3,100,4,27
0.0015482797980330986,80,0.3333333333333333,3,100,4,27
0.007221935571048545,90,0.3333333333333333,3,100,4,27
0.006868136201460453,100,0.3333333333333333,3,100,4,27
0.00010435082033800243,1000,0.3333333333333333,3,100,4,27
1.1266500143042509e-05,10000,0.3333333333333333,3,100,4,27
1.1495358750744652e-06,100000,0.3333333333333333,3,100,4,27
1.2680054131143117e-07,1000000,0.3333333333333333,3,100,4,27
1.1654831699234789e-08,10000000,0.3333333333333333,3,100,4,27
0.08685732278905776,10,0.2,3,100,4,27
0.015651540767242466,20,0.2,3,100,4,27
0.020825253730165395,30,0.2,3,100,4,27
0.011966336623309318,40,0.2,3,100,4,27
0.01065041526585747,50,0.2,3,100,4,27
0.0022843520269499253,60,0.2,3,100,4,27
0.0017078549031232873,70,0.2,3,100,4,27
0.0015382167149844144,80,0.2,3,100,4,27
0.0013419210715819889,90,0.2,3,100,4,27
0.001136242951857307,100,0.2,3,100,4,27
0.00011821241254634625,1000,0.2,3,100,4,27
1.2559121886435469e-05,10000,0.2,3,100,4,27
1.0434968710903981e-06,100000,0.2,3,100,4,27
9.824921644227608e-08,1000000,0.2,3,100,4,27
9.238220306451177e-09,10000000,0.2,3,100,4,27
0.0751410235122254,10,0.14285714285714285,3,100,4,27
0.05874149190437697,20,0.14285714285714285,3,100,4,27
0.04682399442523578,30,0.14285714285714285,3,100,4,27
0.04110535666868789,40,0.14285714285714285,3,100,4,27
0.03476747416836484,50,0.14285714285714285,3,100,4,27
0.03763261530571804,60,0.14285714285714285,3,100,4,27
0.0360831033819091,70,0.14285714285714285,3,100,4,27
0.02991155629033248,80,0.14285714285714285,3,100,4,27
0.028595200994128107,90,0.14285714285714285,3,100,4,27
0.03627788981255434,100,0.14285714285714285,3,100,4,27
0.0062838889056782464,1000,0.14285714285714285,3,100,4,27
1.3765286078037024e-05,10000,0.14285714285714285,3,100,4,27
1.1643213634623583e-06,100000,0.14285714285714285,3,100,4,27
1.1788956841935272e-07,1000000,0.14285714285714285,3,100,4,27
1.350000826320435e-08,10000000,0.14285714285714285,3,100,4,27
0.09213903610547333,10,0.1111111111111111,3,100,4,27
0.0535792538706368,20,0.1111111111111111,3,100,4,27
0.045517463161728666,30,0.1111111111111111,3,100,4,27
0.03726049579514785,40,0.1111111111111111,3,100,4,27
0.033293069813151444,50,0.1111111111111111,3,100,4,27
0.0316603063198206,60,0.1111111111111111,3,100,4,27
0.030550468342109376,70,0.1111111111111111,3,100,4,27
0.02825966866173192,80,0.1111111111111111,3,100,4,27
0.030689473240970544,90,0.1111111111111111,3,100,4,27
0.031041627729104123,100,0.1111111111111111,3,100,4,27
0.009258197877244845,1000,0.1111111111111111,3,100,4,27
1.2720154307877545e-05,10000,0.1111111111111111,3,100,4,27
1.1178154081379568e-06,100000,0.1111111111111111,3,100,4,27
1.2536881971723472e-07,1000000,0.1111111111111111,3,100,4,27
8.97891203467892e-09,10000000,0.1111111111111111,3,100,4,27
0.024982983665079655,10,0.3333333333333333,4,100,5,38
0.012940014199072697,20,0.3333333333333333,4,100,5,38
0.007609985550334046,30,0.3333333333333333,4,100,5,38
0.007928296423418113,40,0.3333333333333333,4,100,5,38
0.003265056120646247,50,0.3333333333333333,4,100,5,38
0.0019597086765385393,60,0.3333333333333333,4,100,5,38
0.001891587194267823,70,0.3333333333333333,4,100,5,38
0.00039908440659096594,80,0.3333333333333333,4,100,5,38
0.0003297805591826312,90,0.3333333333333333,4,100,5,38
0.0002790485472151323,100,0.3333333333333333,4,100,5,38
2.6436767194506653e-05,1000,0.3333333333333333,4,100,5,38
2.6213196604000163e-06,10000,0.3333333333333333,4,100,5,38
2.9212800755959574e-07,100000,0.3333333333333333,4,100,5,38
2.663345389426964e-08,1000000,0.3333333333333333,4,100,5,38
2.7613848122726936e-09,10000000,0.3333333333333333,4,100,5,38
0.024206017498074987,10,0.2,4,100,5,38
0.018900152703459502,20,0.2,4,100,5,38
0.019359705091027933,30,0.2,4,100,5,38
0.01755477921850965,40,0.2,4,100,5,38
0.01630552914788531,50,0.2,4,100,5,38
0.01468988180494938,60,0.2,4,100,5,38
0.014808125860927359,70,0.2,4,100,5,38
0.012753163662681874,80,0.2,4,100,5,38
0.010219737317968994,90,0.2,4,100,5,38
0.008394599732120867,100,0.2,4,100,5,38
3.103116425740373e-05,1000,0.2,4,100,5,38
2.994549551765494e-06,10000,0.2,4,100,5,38
3.173715590882284e-07,100000,0.2,4,100,5,38
2.8224418628681736e-08,1000000,0.2,4,100,5,38
2.5352286864768648e-09,10000000,0.2,4,100,5,38
0.0316838437846706,10,0.14285714285714285,4,100,5,38
0.014816923177075898,20,0.14285714285714285,4,100,5,38
0.014754372907516841,30,0.14285714285714285,4,100,5,38
0.011779874823337191,40,0.14285714285714285,4,100,5,38
0.004843650443834625,50,0.14285714285714285,4,100,5,38
0.00425167831271094,60,0.14285714285714285,4,100,5,38
0.0022203989920450396,70,0.14285714285714285,4,100,5,38
0.0015486412791684634,80,0.14285714285714285,4,100,5,38
0.0014746315467700898,90,0.14285714285714285,4,100,5,38
0.001469071208899222,100,0.14285714285714285,4,100,5,38
2.9158306563026054e-05,1000,0.14285714285714285,4,100,5,38
2.721945930213012e-06,10000,0.14285714285714285,4,100,5,38
3.6551471891961865e-07,100000,0.14285714285714285,4,100,5,38
2.8409407286001377e-08,1000000,0.14285714285714285,4,100,5,38
2.8119860380019254e-09,10000000,0.14285714285714285,4,100,5,38
0.033598827478526785,10,0.1111111111111111,4,100,5,38
0.025000243199250503,20,0.1111111111111111,4,100,5,38
0.020060099180241788,30,0.1111111111111111,4,100,5,38
0.019392989423979105,40,0.1111111111111111,4,100,5,38
0.014707352384380175,50,0.1111111111111111,4,100,5,38
0.011257258386927408,60,0.1111111111111111,4,100,5,38
0.009107481787678113,70,0.1111111111111111,4,100,5,38
0.00678236641594235,80,0.1111111111111111,4,100,5,38
0.008369121623686438,90,0.1111111111111111,4,100,5,38
0.006576735158246255,100,0.1111111111111111,4,100,5,38
2.768372014796676e-05,1000,0.1111111111111111,4,100,5,38
2.9518088946078704e-06,10000,0.1111111111111111,4,100,5,38
3.633003071103269e-07,100000,0.1111111111111111,4,100,5,38
2.946251997023209e-08,1000000,0.1111111111111111,4,100,5,38
3.076446092875464e-09,10000000,0.1111111111111111,4,100,5,38
0.00764707355991062,10,0.3333333333333333,5,100,6,49
0.005602049639777008,20,0.3333333333333333,5,100,6,49
0.0023183826641796404,30,0.3333333333333333,5,100,6,49
0.002089845728525498,40,0.3333333333333333,5,100,6,49
0.0015964722551315704,50,0.3333333333333333,5,100,6,49
0.0004957161699310616,60,0.3333333333333333,5,100,6,49
0.0005056049863853976,70,0.3333333333333333,5,100,6,49
0.00010179152425883214,80,0.3333333333333333,5,100,6,49
0.00045475315143439884,90,0.3333333333333333,5,100,6,49
0.0004306256741467614,100,0.3333333333333333,5,100,6,49
6.410609334238634e-06,1000,0.3333333333333333,5,100,6,49
7.02062540857844e-07,10000,0.3333333333333333,5,100,6,49
6.90079171120076e-08,100000,0.3333333333333333,5,100,6,49
7.940701020094853e-09,1000000,0.3333333333333333,5,100,6,49
7.293522912124255e-10,10000000,0.3333333333333333,5,100,6,49
0.007612311066809949,10,0.2,5,100,6,49
0.0029446735982664334,20,0.2,5,100,6,49
0.0014047244352481925,30,0.2,5,100,6,49
0.00020097048844737323,40,0.2,5,100,6,49
0.00015201405514489826,50,0.2,5,100,6,49
0.00012558750155308227,60,0.2,5,100,6,49
9.747578204671848e-05,70,0.2,5,100,6,49
9.133242947383265e-05,80,0.2,5,100,6,49
7.874837643195109e-05,90,0.2,5,100,6,49
6.794029717911658e-05,100,0.2,5,100,6,49
7.260475816470646e-06,1000,0.2,5,100,6,49
7.335144927543411e-07,10000,0.2,5,100,6,49
7.035952070478326e-08,100000,0.2,5,100,6,49
6.553815494878975e-09,1000000,0.2,5,100,6,49
5.936249126300155e-10,10000000,0.2,5,100,6,49
0.0031675883195307246,10,0.14285714285714285,5,100,6,49
0.0007371662129881562,20,0.14285714285714285,5,100,6,49
0.0008798853993445108,30,0.14285714285714285,5,100,6,49
0.0001557532807183062,40,0.14285714285714285,5,100,6,49
0.00013436753250605882,50,0.14285714285714285,5,100,6,49
0.00010876049620811745,60,0.14285714285714285,5,100,6,49
0.00011095930494661285,70,0.14285714285714285,5,100,6,49
8.905858550805742e-05,80,0.14285714285714285,5,100,6,49
7.55616240564294e-05,90,0.14285714285714285,5,100,6,49
6.156346571719466e-05,100,0.14285714285714285,5,100,6,49
7.3736726802339905e-06,1000,0.14285714285714285,5,100,6,49
7.142855495357844e-07,10000,0.14285714285714285,5,100,6,49
7.225189355300989e-08,100000,0.14285714285714285,5,100,6,49
7.565680451630675e-09,1000000,0.14285714285714285,5,100,6,49
7.180034125263461e-10,10000000,0.14285714285714285,5,100,6,49
0.005903109854102827,10,0.1111111111111111,5,100,6,49
0.0016222341691508031,20,0.1111111111111111,5,100,6,49
0.0015714412496285863,30,0.1111111111111111,5,100,6,49
0.0008279176505163799,40,0.1111111111111111,5,100,6,49
0.0001107149906712282,50,0.1111111111111111,5,100,6,49
0.00010152315128662709,60,0.1111111111111111,5,100,6,49
8.655142966348743e-05,70,0.1111111111111111,5,100,6,49
7.670657684850225e-05,80,0.1111111111111111,5,100,6,49
6.467756209091956e-05,90,0.1111111111111111,5,100,6,49
6.093923719056406e-05,100,0.1111111111111111,5,100,6,49
6.679176562612467e-06,1000,0.1111111111111111,5,100,6,49
7.306665817892697e-07,10000,0.1111111111111111,5,100,6,49
6.268351661168794e-08,100000,0.1111111111111111,5,100,6,49
7.276920327163587e-09,1000000,0.1111111111111111,5,100,6,49
5.552965920060176e-10,10000000,0.1111111111111111,5,100,6,49
0.001560179386814072,10,0.3333333333333333,6,100,7,60
0.0008870808475534972,20,0.3333333333333333,6,100,7,60
0.0004750910783666228,30,0.3333333333333333,6,100,7,60
0.0003895077843370211,40,0.3333333333333333,6,100,7,60
0.00020366177602930137,50,0.3333333333333333,6,100,7,60
0.00012226716530410077,60,0.3333333333333333,6,100,7,60
0.00011768375647048976,70,0.3333333333333333,6,100,7,60
2.4702363211171722e-05,80,0.3333333333333333,6,100,7,60
2.040329551041317e-05,90,0.3333333333333333,6,100,7,60
1.7299261330859582e-05,100,0.3333333333333333,6,100,7,60
1.6796486252066401e-06,1000,0.3333333333333333,6,100,7,60
1.625108903367775e-07,10000,0.3333333333333333,6,100,7,60
1.79563542103341e-08,100000,0.3333333333333333,6,100,7,60
1.6417597905951155e-09,1000000,0.3333333333333333,6,100,7,60
1.7327476921088796e-10,10000000,0.3333333333333333,6,100,7,60
0.0017812973760660154,10,0.2,6,100,7,60
0.001371516178407308,20,0.2,6,100,7,60
0.001276452296745282,30,0.2,6,100,7,60
0.0011128504976822347,40,0.2,6,100,7,60
0.0010230008674146692,50,0.2,6,100,7,60
0.0009123148900527928,60,0.2,6,100,7,60
0.0008508017823382182,70,0.2,6,100,7,60
0.0006838271564067712,80,0.2,6,100,7,60
0.0005831354722814389,90,0.2,6,100,7,60
0.00046097896662801875,100,0.2,6,100,7,60
2.0572889361655326e-06,1000,0.2,6,100,7,60
1.8957222651923744e-07,10000,0.2,6,100,7,60
1.612705051860933e-08,100000,0.2,6,100,7,60
1.5344662988907533e-09,1000000,0.2,6,100,7,60
1.5296363571938462e-10,10000000,0.2,6,100,7,60
0.000969803855863562,10,0.14285714285714285,6,100,7,60
0.0008746239449486466,20,0.14285714285714285,6,100,7,60
0.0006889114799918387,30,0.14285714285714285,6,100,7,60
0.0007169029573727461,40,0.14285714285714285,6,100,7,60
0.000609577680264505,50,0.14285714285714285,6,100,7,60
0.0006093099331286625,60,0.14285714285714285,6,100,7,60
0.0006133146095231863,70,0.14285714285714285,6,100,7,60
0.0005182743571755981,80,0.14285714285714285,6,100,7,60
0.0004794731014157026,90,0.14285714285714285,6,100,7,60
0.0005330124237899425,100,0.14285714285714285,6,100,7,60
0.00013915238949956972,1000,0.14285714285714285,6,100,7,60
2.0319788695886006e-07,10000,0.14285714285714285,6,100,7,60
1.737719193642364e-08,100000,0.14285714285714285,6,100,7,60
1.794303531069703e-09,1000000,0.14285714285714285,6,100,7,60
2.0604562893455195e-10,10000000,0.14285714285714285,6,100,7,60
0.0011277104677421552,10,0.1111111111111111,6,100,7,60
0.0006573792290346967,20,0.1111111111111111,6,100,7,60
0.00047598237339599914,30,0.1111111111111111,6,100,7,60
0.000421286890094572,40,0.1111111111111111,6,100,7,60
0.00041799996076919587,50,0.1111111111111111,6,100,7,60
0.00040861309001899145,60,0.1111111111111111,6,100,7,60
0.00043726529597057324,70,0.1111111111111111,6,100,7,60
0.00038256720779353335,80,0.1111111111111111,6,100,7,60
0.0003897606598305416,90,0.1111111111111111,6,100,7,60
0.00039552791648798816,100,0.1111111111111111,6,100,7,60
0.00012476449846520742,1000,0.1111111111111111,6,100,7,60
2.334398121509599e-07,10000,0.1111111111111111,6,100,7,60
1.6629966744513406e-08,100000,0.1111111111111111,6,100,7,60
2.0130512899931315e-09,1000000,0.1111111111111111,6,100,7,60
1.5268681629249537e-10,10000000,0.1111111111111111,6,100,7,60
0.0004776145705845603,10,0.3333333333333333,7,100,8,71
0.00035166011961960746,20,0.3333333333333333,7,100,8,71
0.00014598374676637367,30,0.3333333333333333,7,100,8,71
0.0001314223544155853,40,0.3333333333333333,7,100,8,71
0.00010043556343612894,50,0.3333333333333333,7,100,8,71
3.0933189353419687e-05,60,0.3333333333333333,7,100,8,71
3.155803762088791e-05,70,0.3333333333333333,7,100,8,71
6.329622218628905e-06,80,0.3333333333333333,7,100,8,71
2.8389526359513252e-05,90,0.3333333333333333,7,100,8,71
2.687302879236695e-05,100,0.3333333333333333,7,100,8,71
4.0066553532709475e-07,1000,0.3333333333333333,7,100,8,71
4.368641123011311e-08,10000,0.3333333333333333,7,100,8,71
4.299921201557803e-09,100000,0.3333333333333333,7,100,8,71
4.989062077606769e-10,1000000,0.3333333333333333,7,100,8,71
4.549078272486021e-11,10000000,0.3333333333333333,7,100,8,71
0.0003092100356398432,10,0.2,7,100,8,71
6.116937616484363e-05,20,0.2,7,100,8,71
5.30333448221191e-05,30,0.2,7,100,8,71
4.6408257664485655e-05,40,0.2,7,100,8,71
4.12981910742126e-05,50,0.2,7,100,8,71
8.736770371517428e-06,60,0.2,7,100,8,71
6.697211128725322e-06,70,0.2,7,100,8,71
6.098716540207049e-06,80,0.2,7,100,8,71
5.300011715235058e-06,90,0.2,7,100,8,71
4.494523208628926e-06,100,0.2,7,100,8,71
4.4365862524610905e-07,1000,0.2,7,100,8,71
4.8681004494208274e-08,10000,0.2,7,100,8,71
3.940938370599038e-09,100000,0.2,7,100,8,71
4.051789311126725e-10,1000000,0.2,7,100,8,71
3.54759643149504e-11,10000000,0.2,7,100,8,71
0.00047319720072572404,10,0.14285714285714285,7,100,8,71
0.00025988556947141236,20,0.14285714285714285,7,100,8,71
0.00021200656647875663,30,0.14285714285714285,7,100,8,71
0.00015115754649459775,40,0.14285714285714285,7,100,8,71
7.577039029059589e-05,50,0.14285714285714285,7,100,8,71
6.71122437531172e-05,60,0.14285714285714285,7,100,8,71
3.4701801189914385e-05,70,0.14285714285714285,7,100,8,71
2.4236035013889116e-05,80,0.14285714285714285,7,100,8,71
2.3095861869911043e-05,90,0.14285714285714285,7,100,8,71
2.295994349627841e-05,100,0.14285714285714285,7,100,8,71
4.515976245969941e-07,1000,0.14285714285714285,7,100,8,71
4.18654593039572e-08,10000,0.14285714285714285,7,100,8,71
5.712817963905475e-09,100000,0.14285714285714285,7,100,8,71
4.4186513838274264e-10,1000000,0.14285714285714285,7,100,8,71
4.418688359994568e-11,10000000,0.14285714285714285,7,100,8,71
0.00048735202542928425,10,0.1111111111111111,7,100,8,71
0.0003993176943996079,20,0.1111111111111111,7,100,8,71
0.00028671269401790776,30,0.1111111111111111,7,100,8,71
0.0002691944599012401,40,0.1111111111111111,7,100,8,71
0.0002455557991806559,50,0.1111111111111111,7,100,8,71
0.000202547371848398,60,0.1111111111111111,7,100,8,71
0.00021765021530522203,70,0.1111111111111111,7,100,8,71
0.00020685476478022357,80,0.1111111111111111,7,100,8,71
0.00010916101480874026,90,0.1111111111111111,7,100,8,71
0.0001123071780785992,100,0.1111111111111111,7,100,8,71
4.4647289274169467e-07,1000,0.1111111111111111,7,100,8,71
4.053094255710499e-08,10000,0.1111111111111111,7,100,8,71
5.474839558475009e-09,100000,0.1111111111111111,7,100,8,71
4.4630033759197204e-10,1000000,0.1111111111111111,7,100,8,71
5.1586492731010866e-11,10000000,0.1111111111111111,7,100,8,71
9.750714702613705e-05,10,0.3333333333333333,8,100,9,82
5.544060847290205e-05,20,0.3333333333333333,8,100,9,82
2.967013386667566e-05,30,0.3333333333333333,8,100,9,82
2.432732527290731e-05,40,0.3333333333333333,8,100,9,82
1.271569322770869e-05,50,0.3333333333333333,8,100,9,82
7.642109036283394e-06,60,0.3333333333333333,8,100,9,82
7.354678590071821e-06,70,0.3333333333333333,8,100,9,82
1.5454408578543114e-06,80,0.3333333333333333,8,100,9,82
1.2739089343521442e-06,90,0.3333333333333333,8,100,9,82
1.0816564934188165e-06,100,0.3333333333333333,8,100,9,82
1.0458340995930051e-07,1000,0.3333333333333333,8,100,9,82
1.0158493371670904e-08,10000,0.3333333333333333,8,100,9,82
1.119874920837262e-09,100000,0.3333333333333333,8,100,9,82
1.0213367570946594e-10,1000000,0.3333333333333333,8,100,9,82
1.0796675548566069e-11,10000000,0.3333333333333333,8,100,9,82
8.846783300272097e-05,10,0.2,8,100,9,82
7.000996310427897e-05,20,0.2,8,100,9,82
7.376119022637571e-05,30,0.2,8,100,9,82
7.27772838743488e-05,40,0.2,8,100,9,82
6.732443654598695e-05,50,0.2,8,100,9,82
5.5173520826165814e-05,60,0.2,8,100,9,82
5.3457089619155216e-05,70,0.2,8,100,9,82
4.765228065315079e-05,80,0.2,8,100,9,82
3.726559968842815e-05,90,0.2,8,100,9,82
3.027586543743444e-05,100,0.2,8,100,9,82
1.2071718547087124e-07,1000,0.2,8,100,9,82
1.1815104384451467e-08,10000,0.2,8,100,9,82
1.2016082470094764e-09,100000,0.2,8,100,9,82
1.0961510593985794e-10,1000000,0.2,8,100,9,82
1.0012428542868402e-11,10000000,0.2,8,100,9,82
4.952078063698737e-05,10,0.14285714285714285,8,100,9,82
1.1501340003243678e-05,20,0.14285714285714285,8,100,9,82
1.4036420049815498e-05,30,0.14285714285714285,8,100,9,82
2.4270425926711696e-06,40,0.14285714285714285,8,100,9,82
2.09223649863911e-06,50,0.14285714285714285,8,100,9,82
1.6978942486150871e-06,60,0.14285714285714285,8,100,9,82
1.7243472182952942e-06,70,0.14285714285714285,8,100,9,82
1.3836159287600365e-06,80,0.14285714285714285,8,100,9,82
1.1755007591017317e-06,90,0.14285714285714285,8,100,9,82
9.559135982165434e-07,100,0.14285714285714285,8,100,9,82
1.153566144424912e-07,1000,0.14285714285714285,8,100,9,82
1.1144214673056995e-08,10000,0.14285714285714285,8,100,9,82
1.1348734788195893e-09,100000,0.14285714285714285,8,100,9,82
1.1688011837228423e-10,1000000,0.14285714285714285,8,100,9,82
0.00192685657094923,200,0.3333333333333333,2,100,3,16
0.0010399488134218533,400,0.3333333333333333,2,100,3,16
0.0008000655313473642,600,0.3333333333333333,2,100,3,16
0.000585327363726133,800,0.3333333333333333,2,100,3,16
0.00020486495792950102,2000,0.3333333333333333,2,100,3,16
0.00012184377426599152,4000,0.3333333333333333,2,100,3,16
8.035079476184472e-05,6000,0.3333333333333333,2,100,3,16
5.4138724631408516e-05,8000,0.3333333333333333,2,100,3,16
0.09816506569523263,200,0.2,2,100,3,16
0.04857692447951321,400,0.2,2,100,3,16
0.0201707323787059,600,0.2,2,100,3,16
0.01974802549412071,800,0.2,2,100,3,16
0.00026389355350789985,2000,0.2,2,100,3,16
0.00012966123989809503,4000,0.2,2,100,3,16
9.082014807450582e-05,6000,0.2,2,100,3,16
6.20623727815632e-05,8000,0.2,2,100,3,16
0.0017188054620801549,200,0.14285714285714285,2,100,3,16
0.0010489912699374925,400,0.14285714285714285,2,100,3,16
0.0007618446582985991,600,0.14285714285714285,2,100,3,16
0.0006465628276127621,800,0.14285714285714285,2,100,3,16
0.00022878456150545725,2000,0.14285714285714285,2,100,3,16
0.0001138517790811214,4000,0.14285714285714285,2,100,3,16
8.397267798166202e-05,6000,0.14285714285714285,2,100,3,16
5.976377535368347e-05,8000,0.14285714285714285,2,100,3,16
0.0021498311153320933,200,0.1111111111111111,2,100,3,16
0.0009456939051018694,400,0.1111111111111111,2,100,3,16
0.0006605614110490905,600,0.1111111111111111,2,100,3,16
0.000568128912241937,800,0.1111111111111111,2,100,3,16
0.00027449957352873074,2000,0.1111111111111111,2,100,3,16
0.0001140213301739229,4000,0.1111111111111111,2,100,3,16
8.619016473881523e-05,6000,0.1111111111111111,2,100,3,16
5.447346424613774e-05,8000,0.1111111111111111,2,100,3,16
0.00044120325255381384,200,0.3333333333333333,3,100,4,27
0.00026989851595828057,400,0.3333333333333333,3,100,4,27
0.00018463478894628505,600,0.3333333333333333,3,100,4,27
0.00014297186736737002,800,0.3333333333333333,3,100,4,27
5.057082300509892e-05,2000,0.3333333333333333,3,100,4,27
2.586347502132539e-05,4000,0.3333333333333333,3,100,4,27
1.8773358543325812e-05,6000,0.3333333333333333,3,100,4,27
1.4078232249597797e-05,8000,0.3333333333333333,3,100,4,27
0.0005625245427163844,200,0.2,3,100,4,27
0.00030704199415056827,400,0.2,3,100,4,27
0.00019783502441337683,600,0.2,3,100,4,27
0.0001529271388167188,800,0.2,3,100,4,27
5.4730437659098517e-05,2000,0.2,3,100,4,27
2.65545309230971e-05,4000,0.2,3,100,4,27
1.7982969303834868e-05,6000,0.2,3,100,4,27
1.3193134264368555e-05,8000,0.2,3,100,4,27
0.020199203703595372,200,0.14285714285714285,3,100,4,27
0.014808667771494468,400,0.14285714285714285,3,100,4,27
0.01347011416275948,600,0.14285714285714285,3,100,4,27
0.004801015456469174,800,0.14285714285714285,3,100,4,27
0.0013143027914521068,2000,0.14285714285714285,3,100,4,27
3.5243515907209424e-05,4000,0.14285714285714285,3,100,4,27
2.699372654825865e-05,6000,0.14285714285714285,3,100,4,27
1.691591586326913e-05,8000,0.14285714285714285,3,100,4,27
0.030671666354779487,200,0.1111111111111111,3,100,4,27
0.019259216370917143,400,0.1111111111111111,3,100,4,27
0.010376362713319227,600,0.1111111111111111,3,100,4,27
0.00789250198639639,800,0.1111111111111111,3,100,4,27
0.0024186666818446236,2000,0.1111111111111111,3,100,4,27
3.47174724341268e-05,4000,0.1111111111111111,3,100,4,27
2.633898174672613e-05,6000,0.1111111111111111,3,100,4,27
1.7705105241385387e-05,8000,0.1111111111111111,3,100,4,27
0.0001277967552703152,200,0.3333333333333333,4,100,5,38
6.262147708055994e-05,400,0.3333333333333333,4,100,5,38
4.9098682677988375e-05,600,0.3333333333333333,4,100,5,38
3.5453735081406376e-05,800,0.3333333333333333,4,100,5,38
1.250542890175191e-05,2000,0.3333333333333333,4,100,5,38
6.847202128227122e-06,4000,0.3333333333333333,4,100,5,38
4.609594632982352e-06,6000,0.3333333333333333,4,100,5,38
3.2444861340176127e-06,8000,0.3333333333333333,4,100,5,38
0.004202106866464722,200,0.2,4,100,5,38
0.000671541346470064,400,0.2,4,100,5,38
4.784405931315534e-05,600,0.2,4,100,5,38
3.477267356111542e-05,800,0.2,4,100,5,38
1.559960025634624e-05,2000,0.2,4,100,5,38
8.842455760976852e-06,4000,0.2,4,100,5,38
5.5307208806676294e-06,6000,0.2,4,100,5,38
3.7527769096992044e-06,8000,0.2,4,100,5,38
0.00013718913781766124,200,0.14285714285714285,4,100,5,38
7.576226299707026e-05,400,0.14285714285714285,4,100,5,38
5.012841386418888e-05,600,0.14285714285714285,4,100,5,38
3.635436425693816e-05,800,0.14285714285714285,4,100,5,38
1.4091090422857776e-05,2000,0.14285714285714285,4,100,5,38
5.3907136035619625e-06,4000,0.14285714285714285,4,100,5,38
4.5874014787905045e-06,6000,0.14285714285714285,4,100,5,38
3.4950054772689447e-06,8000,0.14285714285714285,4,100,5,38
0.003891831317906021,200,0.1111111111111111,4,100,5,38
0.0008421632048952718,400,0.1111111111111111,4,100,5,38
4.777226159869389e-05,600,0.1111111111111111,4,100,5,38
3.6815460894781825e-05,800,0.1111111111111111,4,100,5,38
1.4931949611653719e-05,2000,0.1111111111111111,4,100,5,38
6.595306424849071e-06,4000,0.1111111111111111,4,100,5,38
4.740898849114456e-06,6000,0.1111111111111111,4,100,5,38
3.6569272052906454e-06,8000,0.1111111111111111,4,100,5,38
2.7624001789554302e-05,200,0.3333333333333333,5,100,6,49
1.644796924851076e-05,400,0.3333333333333333,5,100,6,49
1.1280373212284811e-05,600,0.3333333333333333,5,100,6,49
8.844866009434803e-06,800,0.3333333333333333,5,100,6,49
3.0852554243865172e-06,2000,0.3333333333333333,5,100,6,49
1.5397931831753608e-06,4000,0.3333333333333333,5,100,6,49
1.12022354018837e-06,6000,0.3333333333333333,5,100,6,49
8.626397199586022e-07,8000,0.3333333333333333,5,100,6,49
3.215803170733652e-05,200,0.2,5,100,6,49
1.859880425743764e-05,400,0.2,5,100,6,49
1.2527238080660855e-05,600,0.2,5,100,6,49
8.885125224995973e-06,800,0.2,5,100,6,49
3.4420511800042843e-06,2000,0.2,5,100,6,49
1.5722877224359995e-06,4000,0.2,5,100,6,49
1.107688507150484e-06,6000,0.2,5,100,6,49
8.197064679536266e-07,8000,0.2,5,100,6,49
2.5774123813645708e-05,200,0.14285714285714285,5,100,6,49
1.591981655564031e-05,400,0.14285714285714285,5,100,6,49
1.0906092255204478e-05,600,0.14285714285714285,5,100,6,49
9.551701470210037e-06,800,0.14285714285714285,5,100,6,49
3.3792956215538834e-06,2000,0.14285714285714285,5,100,6,49
1.783635983941465e-06,4000,0.14285714285714285,5,100,6,49
1.2772114693396907e-06,6000,0.14285714285714285,5,100,6,49
8.932494175067961e-07,8000,0.14285714285714285,5,100,6,49
3.077242767198825e-05,200,0.1111111111111111,5,100,6,49
1.6445366818313865e-05,400,0.1111111111111111,5,100,6,49
1.1374167970726539e-05,600,0.1111111111111111,5,100,6,49
8.623243363926354e-06,800,0.1111111111111111,5,100,6,49
3.6770594987151806e-06,2000,0.1111111111111111,5,100,6,49
1.4729837521232755e-06,4000,0.1111111111111111,5,100,6,49
1.1671231028628292e-06,6000,0.1111111111111111,5,100,6,49
8.148890533731025e-07,8000,0.1111111111111111,5,100,6,49
7.970375925544462e-06,200,0.3333333333333333,6,100,7,60
3.949763169135972e-06,400,0.3333333333333333,6,100,7,60
3.0974434611703605e-06,600,0.3333333333333333,6,100,7,60
2.2550575250437054e-06,800,0.3333333333333333,6,100,7,60
7.853146575041421e-07,2000,0.3333333333333333,6,100,7,60
4.3099115018692827e-07,4000,0.3333333333333333,6,100,7,60
2.8658450360744914e-07,6000,0.3333333333333333,6,100,7,60
2.0043109571290806e-07,8000,0.3333333333333333,6,100,7,60
0.000328583601910885,200,0.2,6,100,7,60
4.2455947282751487e-05,400,0.2,6,100,7,60
3.49097748592659e-06,600,0.2,6,100,7,60
2.5415045994093147e-06,800,0.2,6,100,7,60
9.552938054182986e-07,2000,0.2,6,100,7,60
4.938123303790984e-07,4000,0.2,6,100,7,60
3.404251200082791e-07,6000,0.2,6,100,7,60
2.344677557221908e-07,8000,0.2,6,100,7,60
0.00032734690046507886,200,0.14285714285714285,6,100,7,60
0.0001923659001060979,400,0.14285714285714285,6,100,7,60
0.00011705037308900926,600,0.14285714285714285,6,100,7,60
0.00011385559636597909,800,0.14285714285714285,6,100,7,60
2.061809915838856e-05,2000,0.14285714285714285,6,100,7,60
5.265603253329397e-07,4000,0.14285714285714285,6,100,7,60
3.972743881302676e-07,6000,0.14285714285714285,6,100,7,60
2.5302078709771697e-07,8000,0.14285714285714285,6,100,7,60
0.00041854248258309517,200,0.1111111111111111,6,100,7,60
0.00024502318335405403,400,0.1111111111111111,6,100,7,60
0.0002040374817123668,600,0.1111111111111111,6,100,7,60
0.00015077102850529687,800,0.1111111111111111,6,100,7,60
8.218289480995479e-05,2000,0.1111111111111111,6,100,7,60
6.03902767601595e-07,4000,0.1111111111111111,6,100,7,60
4.6774930641581955e-07,6000,0.1111111111111111,6,100,7,60
3.121128445549962e-07,8000,0.1111111111111111,6,100,7,60
1.7210803280787725e-06,200,0.3333333333333333,7,100,8,71
1.0130218397526159e-06,400,0.3333333333333333,7,100,8,71
6.992455031640177e-07,600,0.3333333333333333,7,100,8,71
5.511779750218284e-07,800,0.3333333333333333,7,100,8,71
1.9360285676424122e-07,2000,0.3333333333333333,7,100,8,71
9.508954695762236e-08,4000,0.3333333333333333,7,100,8,71
6.988856399384204e-08,6000,0.3333333333333333,7,100,8,71
5.353658561663399e-08,8000,0.3333333333333333,7,100,8,71
2.140818721948913e-06,200,0.2,7,100,8,71
1.181987899707779e-06,400,0.2,7,100,8,71
7.57949429851661e-07,600,0.2,7,100,8,71
5.865393199759071e-07,800,0.2,7,100,8,71
2.0890759963125197e-07,2000,0.2,7,100,8,71
1.0153198408766356e-07,4000,0.2,7,100,8,71
7.09088497126784e-08,6000,0.2,7,100,8,71
5.103172901447417e-08,8000,0.2,7,100,8,71
2.1301370228346442e-06,200,0.14285714285714285,7,100,8,71
1.2030425538105678e-06,400,0.14285714285714285,7,100,8,71
7.934474316844653e-07,600,0.14285714285714285,7,100,8,71
5.696122967260926e-07,800,0.14285714285714285,7,100,8,71
2.1793380361177976e-07,2000,0.14285714285714285,7,100,8,71
8.138920270656937e-08,4000,0.14285714285714285,7,100,8,71
7.013130599201789e-08,6000,0.14285714285714285,7,100,8,71
5.334320900060278e-08,8000,0.14285714285714285,7,100,8,71
3.593905613671941e-05,200,0.1111111111111111,7,100,8,71
1.2405947184588702e-05,400,0.1111111111111111,7,100,8,71
1.1791505373142637e-05,600,0.1111111111111111,7,100,8,71
5.992115902731536e-07,800,0.1111111111111111,7,100,8,71
2.3130032589385929e-07,2000,0.1111111111111111,7,100,8,71
9.092192918963153e-08,4000,0.1111111111111111,7,100,8,71
6.839697589349087e-08,6000,0.1111111111111111,7,100,8,71
5.115509096606849e-08,8000,0.1111111111111111,7,100,8,71
4.051797119642818e-07,200,0.14285714285714285,8,100,9,82
2.493044539675075e-07,400,0.14285714285714285,8,100,9,82
1.7156006834592766e-07,600,0.14285714285714285,8,100,9,82
1.4951912672598737e-07,800,0.14285714285714285,8,100,9,82
5.25142944927098e-08,2000,0.14285714285714285,8,100,9,82
2.7837092475227408e-08,4000,0.14285714285714285,8,100,9,82
1.9869113759645406e-08,6000,0.14285714285714285,8,100,9,82
1.3927534954913452e-08,8000,0.14285714285714285,8,100,9,82
1.1178918282995627e-11,10000000,0.14285714285714285,8,100,9,82
4.8548169199098204e-05,10,0.1111111111111111,8,100,9,82
1.6008080194132527e-05,20,0.1111111111111111,8,100,9,82
1.3672108722020726e-05,30,0.1111111111111111,8,100,9,82
1.1810068478762212e-05,40,0.1111111111111111,8,100,9,82
1.0400868534075166e-05,50,0.1111111111111111,8,100,9,82
1.5873930414536036e-06,60,0.1111111111111111,8,100,9,82
1.3071029714266836e-06,70,0.1111111111111111,8,100,9,82
1.130620611189787e-06,80,0.1111111111111111,8,100,9,82
9.801292756282436e-07,90,0.1111111111111111,8,100,9,82
9.06611917103241e-07,100,0.1111111111111111,8,100,9,82
1.0177014697719869e-07,1000,0.1111111111111111,8,100,9,82
1.1869912147870141e-08,10000,0.1111111111111111,8,100,9,82
1.0263471760655943e-09,100000,0.1111111111111111,8,100,9,82
1.0795863309095564e-10,1000000,0.1111111111111111,8,100,9,82
9.398268659900822e-12,10000000,0.1111111111111111,8,100,9,82
4.942390419724545e-07,200,0.1111111111111111,8,100,9,82
2.233445551486673e-07,400,0.1111111111111111,8,100,9,82
1.5390257007578489e-07,600,0.1111111111111111,8,100,9,82
1.2974127053608792e-07,800,0.1111111111111111,8,100,9,82
6.248464788531946e-08,2000,0.1111111111111111,8,100,9,82
2.3802456948891746e-08,4000,0.1111111111111111,8,100,9,82
1.824035581185478e-08,6000,0.1111111111111111,8,100,9,82
1.2420163383096647e-08,8000,0.1111111111111111,8,100,9,82
2.985068737368393e-05,10,0.3333333333333333,9,100,10,93
2.1978554736981803e-05,20,0.3333333333333333,9,100,10,93
9.123939791962384e-06,30,0.3333333333333333,9,100,10,93
8.213848140110626e-06,40,0.3333333333333333,9,100,10,93
6.277216696682579e-06,50,0.3333333333333333,9,100,10,93
1.9333469208922054e-06,60,0.3333333333333333,9,100,10,93
1.9723851752923404e-06,70,0.3333333333333333,9,100,10,93
3.956330938840585e-07,80,0.3333333333333333,9,100,10,93
1.7743571151717485e-06,90,0.3333333333333333,9,100,10,93
1.6796411191543863e-06,100,0.3333333333333333,9,100,10,93
2.5043043503144607e-08,1000,0.3333333333333333,9,100,10,93
2.7253799356181324e-09,10000,0.3333333333333333,9,100,10,93
2.685513425902588e-10,100000,0.3333333333333333,9,100,10,93
3.111894882221389e-11,1000000,0.3333333333333333,9,100,10,93
2.8496501721379936e-12,10000000,0.3333333333333333,9,100,10,93
1.07588725669571e-07,200,0.3333333333333333,9,100,10,93
5.000751047352586e-07,200,0.3333333333333333,8,100,9,82
2.466064058471264e-07,400,0.3333333333333333,8,100,9,82
1.9376600196972908e-07,600,0.3333333333333333,8,100,9,82
1.4053752581181605e-07,800,0.3333333333333333,8,100,9,82
4.883568365624942e-08,2000,0.3333333333333333,8,100,9,82
2.677121246157709e-08,4000,0.3333333333333333,8,100,9,82
1.7836977998059374e-08,6000,0.3333333333333333,8,100,9,82
1.2478320562904927e-08,8000,0.3333333333333333,8,100,9,82
1.864970486576715e-05,200,0.2,8,100,9,82
2.624248516968358e-06,400,0.2,8,100,9,82
1.8767562487971932e-07,600,0.2,8,100,9,82
1.3397015424667948e-07,800,0.2,8,100,9,82
6.12333408876105e-08,2000,0.2,8,100,9,82
3.456651841398603e-08,4000,0.2,8,100,9,82
2.1636019430060523e-08,6000,0.2,8,100,9,82
1.4650484511347649e-08,8000,0.2,8,100,9,82
